…
``` r
schema %>% 
  filter(TABLE == "inpatient") %>% 
  pull(PROPERTIES)
#> [[1]]
#> # A tibble: 35 x 3
#>    VARIABLE                 TYPE    DESCRIPTION                                 
#>    <chr>                    <chr>   <chr>                                       
#>  1 DESYNPUF_ID              string  Beneficiary Code                            
#>  2 CLM_ID                   string  Claim ID                                    
#>  3 SEGMENT                  numeric Claim Line Segment                          
#>  4 CLM_FROM_DT              date    Claims start date                           
#>  5 CLM_THRU_DT              date    Claims end date                             
#>  6 PRVDR_NUM                string  Provider Institution                        
#>  7 CLM_PMT_AMT              numeric Claim Payment Amount                        
#>  8 NCH_PRMRY_PYR_CLM_PD_AMT numeric NCH Primary Payer Claim Paid Amount         
#>  9 AT_PHYSN_NPI             string  Attending Physician National Provider Ident~
#> 10 OP_PHYSN_NPI             string  Operating Physician National Provider Ident~
#> # ... with 25 more rows
```
…
